ISO-10303-21;
HEADER;
/* Generated by software containing ST-Developer
 * from STEP Tools, Inc. (www.steptools.com) 
 */

FILE_DESCRIPTION(
/* description */ (''),
/* implementation_level */ '2;1');

FILE_NAME(
/* name */ 
'C:/Users/Luis Molina/Documents/FUNTRONICS/02 Amplificador an\X\E1logo
 con los beneficios digitales/CAD Documents - RoboAmp/STEP files/Dock 
- Bluesbreaker v17.step',
/* time_stamp */ '2021-11-10T10:40:11-07:00',
/* author */ (''),
/* organization */ (''),
/* preprocessor_version */ 'ST-DEVELOPER v18.1',
/* originating_system */ 'Autodesk Translation Framework v10.10.0.1391',

/* authorisation */ '');

FILE_SCHEMA (('AUTOMOTIVE_DESIGN { 1 0 10303 214 3 1 1 }'));
ENDSEC;

DATA;
#10=MECHANICAL_DESIGN_GEOMETRIC_PRESENTATION_REPRESENTATION('',(#13),#895);
#11=SHAPE_REPRESENTATION_RELATIONSHIP('SRR','None',#902,#12);
#12=ADVANCED_BREP_SHAPE_REPRESENTATION('',(#14),#894);
#13=STYLED_ITEM('',(#911),#14);
#14=MANIFOLD_SOLID_BREP('Body9',#547);
#15=FACE_BOUND('',#108,.T.);
#16=FACE_BOUND('',#109,.T.);
#17=FACE_BOUND('',#110,.T.);
#18=FACE_BOUND('',#111,.T.);
#19=FACE_BOUND('',#112,.T.);
#20=FACE_BOUND('',#113,.T.);
#21=FACE_BOUND('',#114,.T.);
#22=FACE_BOUND('',#115,.T.);
#23=FACE_BOUND('',#116,.T.);
#24=FACE_BOUND('',#118,.T.);
#25=FACE_BOUND('',#119,.T.);
#26=FACE_BOUND('',#120,.T.);
#27=FACE_BOUND('',#121,.T.);
#28=FACE_BOUND('',#122,.T.);
#29=FACE_BOUND('',#123,.T.);
#30=FACE_BOUND('',#124,.T.);
#31=FACE_BOUND('',#125,.T.);
#32=FACE_BOUND('',#126,.T.);
#33=CIRCLE('',#566,1.05);
#34=CIRCLE('',#567,1.05);
#35=CIRCLE('',#569,1.05);
#36=CIRCLE('',#570,1.05);
#37=CIRCLE('',#572,1.05);
#38=CIRCLE('',#573,1.05);
#39=CIRCLE('',#575,1.05);
#40=CIRCLE('',#576,1.05);
#41=CIRCLE('',#578,1.05);
#42=CIRCLE('',#579,1.05);
#43=CIRCLE('',#581,1.05);
#44=CIRCLE('',#582,1.05);
#45=CIRCLE('',#584,1.05);
#46=CIRCLE('',#585,1.05);
#47=CIRCLE('',#587,1.05);
#48=CIRCLE('',#588,1.05);
#49=CYLINDRICAL_SURFACE('',#565,1.05);
#50=CYLINDRICAL_SURFACE('',#568,1.05);
#51=CYLINDRICAL_SURFACE('',#571,1.05);
#52=CYLINDRICAL_SURFACE('',#574,1.05);
#53=CYLINDRICAL_SURFACE('',#577,1.05);
#54=CYLINDRICAL_SURFACE('',#580,1.05);
#55=CYLINDRICAL_SURFACE('',#583,1.05);
#56=CYLINDRICAL_SURFACE('',#586,1.05);
#57=FACE_OUTER_BOUND('',#83,.T.);
#58=FACE_OUTER_BOUND('',#84,.T.);
#59=FACE_OUTER_BOUND('',#85,.T.);
#60=FACE_OUTER_BOUND('',#86,.T.);
#61=FACE_OUTER_BOUND('',#87,.T.);
#62=FACE_OUTER_BOUND('',#88,.T.);
#63=FACE_OUTER_BOUND('',#89,.T.);
#64=FACE_OUTER_BOUND('',#90,.T.);
#65=FACE_OUTER_BOUND('',#91,.T.);
#66=FACE_OUTER_BOUND('',#92,.T.);
#67=FACE_OUTER_BOUND('',#93,.T.);
#68=FACE_OUTER_BOUND('',#94,.T.);
#69=FACE_OUTER_BOUND('',#95,.T.);
#70=FACE_OUTER_BOUND('',#96,.T.);
#71=FACE_OUTER_BOUND('',#97,.T.);
#72=FACE_OUTER_BOUND('',#98,.T.);
#73=FACE_OUTER_BOUND('',#99,.T.);
#74=FACE_OUTER_BOUND('',#100,.T.);
#75=FACE_OUTER_BOUND('',#101,.T.);
#76=FACE_OUTER_BOUND('',#102,.T.);
#77=FACE_OUTER_BOUND('',#103,.T.);
#78=FACE_OUTER_BOUND('',#104,.T.);
#79=FACE_OUTER_BOUND('',#105,.T.);
#80=FACE_OUTER_BOUND('',#106,.T.);
#81=FACE_OUTER_BOUND('',#107,.T.);
#82=FACE_OUTER_BOUND('',#117,.T.);
#83=EDGE_LOOP('',(#359,#360,#361,#362));
#84=EDGE_LOOP('',(#363,#364,#365,#366));
#85=EDGE_LOOP('',(#367,#368,#369,#370));
#86=EDGE_LOOP('',(#371,#372,#373,#374));
#87=EDGE_LOOP('',(#375,#376,#377,#378));
#88=EDGE_LOOP('',(#379,#380,#381,#382));
#89=EDGE_LOOP('',(#383,#384,#385,#386));
#90=EDGE_LOOP('',(#387,#388,#389,#390));
#91=EDGE_LOOP('',(#391,#392,#393,#394));
#92=EDGE_LOOP('',(#395,#396,#397,#398));
#93=EDGE_LOOP('',(#399,#400,#401,#402));
#94=EDGE_LOOP('',(#403,#404,#405,#406));
#95=EDGE_LOOP('',(#407,#408,#409,#410));
#96=EDGE_LOOP('',(#411,#412,#413,#414));
#97=EDGE_LOOP('',(#415,#416,#417,#418));
#98=EDGE_LOOP('',(#419,#420,#421,#422));
#99=EDGE_LOOP('',(#423,#424,#425,#426));
#100=EDGE_LOOP('',(#427,#428,#429,#430));
#101=EDGE_LOOP('',(#431,#432,#433,#434));
#102=EDGE_LOOP('',(#435,#436,#437,#438));
#103=EDGE_LOOP('',(#439,#440,#441,#442));
#104=EDGE_LOOP('',(#443,#444,#445,#446));
#105=EDGE_LOOP('',(#447,#448,#449,#450));
#106=EDGE_LOOP('',(#451,#452,#453,#454));
#107=EDGE_LOOP('',(#455,#456,#457,#458,#459,#460,#461,#462,#463,#464,#465,
#466));
#108=EDGE_LOOP('',(#467));
#109=EDGE_LOOP('',(#468));
#110=EDGE_LOOP('',(#469));
#111=EDGE_LOOP('',(#470));
#112=EDGE_LOOP('',(#471));
#113=EDGE_LOOP('',(#472));
#114=EDGE_LOOP('',(#473));
#115=EDGE_LOOP('',(#474));
#116=EDGE_LOOP('',(#475,#476,#477,#478));
#117=EDGE_LOOP('',(#479,#480,#481,#482,#483,#484,#485,#486,#487,#488,#489,
#490));
#118=EDGE_LOOP('',(#491));
#119=EDGE_LOOP('',(#492));
#120=EDGE_LOOP('',(#493));
#121=EDGE_LOOP('',(#494));
#122=EDGE_LOOP('',(#495));
#123=EDGE_LOOP('',(#496));
#124=EDGE_LOOP('',(#497));
#125=EDGE_LOOP('',(#498));
#126=EDGE_LOOP('',(#499,#500,#501,#502));
#127=LINE('',#749,#183);
#128=LINE('',#751,#184);
#129=LINE('',#753,#185);
#130=LINE('',#754,#186);
#131=LINE('',#757,#187);
#132=LINE('',#759,#188);
#133=LINE('',#760,#189);
#134=LINE('',#763,#190);
#135=LINE('',#765,#191);
#136=LINE('',#766,#192);
#137=LINE('',#768,#193);
#138=LINE('',#769,#194);
#139=LINE('',#774,#195);
#140=LINE('',#780,#196);
#141=LINE('',#786,#197);
#142=LINE('',#792,#198);
#143=LINE('',#798,#199);
#144=LINE('',#804,#200);
#145=LINE('',#810,#201);
#146=LINE('',#816,#202);
#147=LINE('',#821,#203);
#148=LINE('',#823,#204);
#149=LINE('',#825,#205);
#150=LINE('',#826,#206);
#151=LINE('',#829,#207);
#152=LINE('',#831,#208);
#153=LINE('',#832,#209);
#154=LINE('',#835,#210);
#155=LINE('',#837,#211);
#156=LINE('',#838,#212);
#157=LINE('',#841,#213);
#158=LINE('',#843,#214);
#159=LINE('',#844,#215);
#160=LINE('',#847,#216);
#161=LINE('',#849,#217);
#162=LINE('',#850,#218);
#163=LINE('',#853,#219);
#164=LINE('',#855,#220);
#165=LINE('',#856,#221);
#166=LINE('',#859,#222);
#167=LINE('',#861,#223);
#168=LINE('',#862,#224);
#169=LINE('',#865,#225);
#170=LINE('',#867,#226);
#171=LINE('',#868,#227);
#172=LINE('',#871,#228);
#173=LINE('',#873,#229);
#174=LINE('',#874,#230);
#175=LINE('',#877,#231);
#176=LINE('',#879,#232);
#177=LINE('',#880,#233);
#178=LINE('',#883,#234);
#179=LINE('',#885,#235);
#180=LINE('',#886,#236);
#181=LINE('',#888,#237);
#182=LINE('',#889,#238);
#183=VECTOR('',#607,10.);
#184=VECTOR('',#608,10.);
#185=VECTOR('',#609,10.);
#186=VECTOR('',#610,10.);
#187=VECTOR('',#613,10.);
#188=VECTOR('',#614,10.);
#189=VECTOR('',#615,10.);
#190=VECTOR('',#618,10.);
#191=VECTOR('',#619,10.);
#192=VECTOR('',#620,10.);
#193=VECTOR('',#623,10.);
#194=VECTOR('',#624,10.);
#195=VECTOR('',#629,1.05);
#196=VECTOR('',#636,1.05);
#197=VECTOR('',#643,1.05);
#198=VECTOR('',#650,1.05);
#199=VECTOR('',#657,1.05);
#200=VECTOR('',#664,1.05);
#201=VECTOR('',#671,1.05);
#202=VECTOR('',#678,1.05);
#203=VECTOR('',#683,10.);
#204=VECTOR('',#684,10.);
#205=VECTOR('',#685,10.);
#206=VECTOR('',#686,10.);
#207=VECTOR('',#689,10.);
#208=VECTOR('',#690,10.);
#209=VECTOR('',#691,10.);
#210=VECTOR('',#694,10.);
#211=VECTOR('',#695,10.);
#212=VECTOR('',#696,10.);
#213=VECTOR('',#699,10.);
#214=VECTOR('',#700,10.);
#215=VECTOR('',#701,10.);
#216=VECTOR('',#704,10.);
#217=VECTOR('',#705,10.);
#218=VECTOR('',#706,10.);
#219=VECTOR('',#709,10.);
#220=VECTOR('',#710,10.);
#221=VECTOR('',#711,10.);
#222=VECTOR('',#714,10.);
#223=VECTOR('',#715,10.);
#224=VECTOR('',#716,10.);
#225=VECTOR('',#719,10.);
#226=VECTOR('',#720,10.);
#227=VECTOR('',#721,10.);
#228=VECTOR('',#724,10.);
#229=VECTOR('',#725,10.);
#230=VECTOR('',#726,10.);
#231=VECTOR('',#729,10.);
#232=VECTOR('',#730,10.);
#233=VECTOR('',#731,10.);
#234=VECTOR('',#734,10.);
#235=VECTOR('',#735,10.);
#236=VECTOR('',#736,10.);
#237=VECTOR('',#739,10.);
#238=VECTOR('',#740,10.);
#239=VERTEX_POINT('',#747);
#240=VERTEX_POINT('',#748);
#241=VERTEX_POINT('',#750);
#242=VERTEX_POINT('',#752);
#243=VERTEX_POINT('',#756);
#244=VERTEX_POINT('',#758);
#245=VERTEX_POINT('',#762);
#246=VERTEX_POINT('',#764);
#247=VERTEX_POINT('',#771);
#248=VERTEX_POINT('',#773);
#249=VERTEX_POINT('',#777);
#250=VERTEX_POINT('',#779);
#251=VERTEX_POINT('',#783);
#252=VERTEX_POINT('',#785);
#253=VERTEX_POINT('',#789);
#254=VERTEX_POINT('',#791);
#255=VERTEX_POINT('',#795);
#256=VERTEX_POINT('',#797);
#257=VERTEX_POINT('',#801);
#258=VERTEX_POINT('',#803);
#259=VERTEX_POINT('',#807);
#260=VERTEX_POINT('',#809);
#261=VERTEX_POINT('',#813);
#262=VERTEX_POINT('',#815);
#263=VERTEX_POINT('',#819);
#264=VERTEX_POINT('',#820);
#265=VERTEX_POINT('',#822);
#266=VERTEX_POINT('',#824);
#267=VERTEX_POINT('',#828);
#268=VERTEX_POINT('',#830);
#269=VERTEX_POINT('',#834);
#270=VERTEX_POINT('',#836);
#271=VERTEX_POINT('',#840);
#272=VERTEX_POINT('',#842);
#273=VERTEX_POINT('',#846);
#274=VERTEX_POINT('',#848);
#275=VERTEX_POINT('',#852);
#276=VERTEX_POINT('',#854);
#277=VERTEX_POINT('',#858);
#278=VERTEX_POINT('',#860);
#279=VERTEX_POINT('',#864);
#280=VERTEX_POINT('',#866);
#281=VERTEX_POINT('',#870);
#282=VERTEX_POINT('',#872);
#283=VERTEX_POINT('',#876);
#284=VERTEX_POINT('',#878);
#285=VERTEX_POINT('',#882);
#286=VERTEX_POINT('',#884);
#287=EDGE_CURVE('',#239,#240,#127,.T.);
#288=EDGE_CURVE('',#240,#241,#128,.T.);
#289=EDGE_CURVE('',#242,#241,#129,.T.);
#290=EDGE_CURVE('',#239,#242,#130,.T.);
#291=EDGE_CURVE('',#243,#239,#131,.T.);
#292=EDGE_CURVE('',#244,#242,#132,.T.);
#293=EDGE_CURVE('',#243,#244,#133,.T.);
#294=EDGE_CURVE('',#245,#243,#134,.T.);
#295=EDGE_CURVE('',#246,#244,#135,.T.);
#296=EDGE_CURVE('',#245,#246,#136,.T.);
#297=EDGE_CURVE('',#240,#245,#137,.T.);
#298=EDGE_CURVE('',#241,#246,#138,.T.);
#299=EDGE_CURVE('',#247,#247,#33,.T.);
#300=EDGE_CURVE('',#247,#248,#139,.T.);
#301=EDGE_CURVE('',#248,#248,#34,.T.);
#302=EDGE_CURVE('',#249,#249,#35,.T.);
#303=EDGE_CURVE('',#249,#250,#140,.T.);
#304=EDGE_CURVE('',#250,#250,#36,.T.);
#305=EDGE_CURVE('',#251,#251,#37,.T.);
#306=EDGE_CURVE('',#251,#252,#141,.T.);
#307=EDGE_CURVE('',#252,#252,#38,.T.);
#308=EDGE_CURVE('',#253,#253,#39,.T.);
#309=EDGE_CURVE('',#253,#254,#142,.T.);
#310=EDGE_CURVE('',#254,#254,#40,.T.);
#311=EDGE_CURVE('',#255,#255,#41,.T.);
#312=EDGE_CURVE('',#255,#256,#143,.T.);
#313=EDGE_CURVE('',#256,#256,#42,.T.);
#314=EDGE_CURVE('',#257,#257,#43,.T.);
#315=EDGE_CURVE('',#257,#258,#144,.T.);
#316=EDGE_CURVE('',#258,#258,#44,.T.);
#317=EDGE_CURVE('',#259,#259,#45,.T.);
#318=EDGE_CURVE('',#259,#260,#145,.T.);
#319=EDGE_CURVE('',#260,#260,#46,.T.);
#320=EDGE_CURVE('',#261,#261,#47,.T.);
#321=EDGE_CURVE('',#261,#262,#146,.T.);
#322=EDGE_CURVE('',#262,#262,#48,.T.);
#323=EDGE_CURVE('',#263,#264,#147,.T.);
#324=EDGE_CURVE('',#263,#265,#148,.T.);
#325=EDGE_CURVE('',#266,#265,#149,.T.);
#326=EDGE_CURVE('',#264,#266,#150,.T.);
#327=EDGE_CURVE('',#264,#267,#151,.T.);
#328=EDGE_CURVE('',#268,#266,#152,.T.);
#329=EDGE_CURVE('',#267,#268,#153,.T.);
#330=EDGE_CURVE('',#267,#269,#154,.T.);
#331=EDGE_CURVE('',#270,#268,#155,.T.);
#332=EDGE_CURVE('',#269,#270,#156,.T.);
#333=EDGE_CURVE('',#269,#271,#157,.T.);
#334=EDGE_CURVE('',#272,#270,#158,.T.);
#335=EDGE_CURVE('',#271,#272,#159,.T.);
#336=EDGE_CURVE('',#271,#273,#160,.T.);
#337=EDGE_CURVE('',#274,#272,#161,.T.);
#338=EDGE_CURVE('',#273,#274,#162,.T.);
#339=EDGE_CURVE('',#273,#275,#163,.T.);
#340=EDGE_CURVE('',#276,#274,#164,.T.);
#341=EDGE_CURVE('',#275,#276,#165,.T.);
#342=EDGE_CURVE('',#277,#275,#166,.T.);
#343=EDGE_CURVE('',#278,#276,#167,.T.);
#344=EDGE_CURVE('',#277,#278,#168,.T.);
#345=EDGE_CURVE('',#279,#277,#169,.T.);
#346=EDGE_CURVE('',#280,#278,#170,.T.);
#347=EDGE_CURVE('',#279,#280,#171,.T.);
#348=EDGE_CURVE('',#279,#281,#172,.T.);
#349=EDGE_CURVE('',#282,#280,#173,.T.);
#350=EDGE_CURVE('',#281,#282,#174,.T.);
#351=EDGE_CURVE('',#281,#283,#175,.T.);
#352=EDGE_CURVE('',#284,#282,#176,.T.);
#353=EDGE_CURVE('',#283,#284,#177,.T.);
#354=EDGE_CURVE('',#283,#285,#178,.T.);
#355=EDGE_CURVE('',#286,#284,#179,.T.);
#356=EDGE_CURVE('',#285,#286,#180,.T.);
#357=EDGE_CURVE('',#263,#285,#181,.T.);
#358=EDGE_CURVE('',#265,#286,#182,.T.);
#359=ORIENTED_EDGE('',*,*,#287,.T.);
#360=ORIENTED_EDGE('',*,*,#288,.T.);
#361=ORIENTED_EDGE('',*,*,#289,.F.);
#362=ORIENTED_EDGE('',*,*,#290,.F.);
#363=ORIENTED_EDGE('',*,*,#291,.T.);
#364=ORIENTED_EDGE('',*,*,#290,.T.);
#365=ORIENTED_EDGE('',*,*,#292,.F.);
#366=ORIENTED_EDGE('',*,*,#293,.F.);
#367=ORIENTED_EDGE('',*,*,#294,.T.);
#368=ORIENTED_EDGE('',*,*,#293,.T.);
#369=ORIENTED_EDGE('',*,*,#295,.F.);
#370=ORIENTED_EDGE('',*,*,#296,.F.);
#371=ORIENTED_EDGE('',*,*,#297,.T.);
#372=ORIENTED_EDGE('',*,*,#296,.T.);
#373=ORIENTED_EDGE('',*,*,#298,.F.);
#374=ORIENTED_EDGE('',*,*,#288,.F.);
#375=ORIENTED_EDGE('',*,*,#299,.F.);
#376=ORIENTED_EDGE('',*,*,#300,.T.);
#377=ORIENTED_EDGE('',*,*,#301,.T.);
#378=ORIENTED_EDGE('',*,*,#300,.F.);
#379=ORIENTED_EDGE('',*,*,#302,.F.);
#380=ORIENTED_EDGE('',*,*,#303,.T.);
#381=ORIENTED_EDGE('',*,*,#304,.T.);
#382=ORIENTED_EDGE('',*,*,#303,.F.);
#383=ORIENTED_EDGE('',*,*,#305,.F.);
#384=ORIENTED_EDGE('',*,*,#306,.T.);
#385=ORIENTED_EDGE('',*,*,#307,.T.);
#386=ORIENTED_EDGE('',*,*,#306,.F.);
#387=ORIENTED_EDGE('',*,*,#308,.F.);
#388=ORIENTED_EDGE('',*,*,#309,.T.);
#389=ORIENTED_EDGE('',*,*,#310,.T.);
#390=ORIENTED_EDGE('',*,*,#309,.F.);
#391=ORIENTED_EDGE('',*,*,#311,.F.);
#392=ORIENTED_EDGE('',*,*,#312,.T.);
#393=ORIENTED_EDGE('',*,*,#313,.T.);
#394=ORIENTED_EDGE('',*,*,#312,.F.);
#395=ORIENTED_EDGE('',*,*,#314,.F.);
#396=ORIENTED_EDGE('',*,*,#315,.T.);
#397=ORIENTED_EDGE('',*,*,#316,.T.);
#398=ORIENTED_EDGE('',*,*,#315,.F.);
#399=ORIENTED_EDGE('',*,*,#317,.F.);
#400=ORIENTED_EDGE('',*,*,#318,.T.);
#401=ORIENTED_EDGE('',*,*,#319,.T.);
#402=ORIENTED_EDGE('',*,*,#318,.F.);
#403=ORIENTED_EDGE('',*,*,#320,.F.);
#404=ORIENTED_EDGE('',*,*,#321,.T.);
#405=ORIENTED_EDGE('',*,*,#322,.T.);
#406=ORIENTED_EDGE('',*,*,#321,.F.);
#407=ORIENTED_EDGE('',*,*,#323,.F.);
#408=ORIENTED_EDGE('',*,*,#324,.T.);
#409=ORIENTED_EDGE('',*,*,#325,.F.);
#410=ORIENTED_EDGE('',*,*,#326,.F.);
#411=ORIENTED_EDGE('',*,*,#327,.F.);
#412=ORIENTED_EDGE('',*,*,#326,.T.);
#413=ORIENTED_EDGE('',*,*,#328,.F.);
#414=ORIENTED_EDGE('',*,*,#329,.F.);
#415=ORIENTED_EDGE('',*,*,#330,.F.);
#416=ORIENTED_EDGE('',*,*,#329,.T.);
#417=ORIENTED_EDGE('',*,*,#331,.F.);
#418=ORIENTED_EDGE('',*,*,#332,.F.);
#419=ORIENTED_EDGE('',*,*,#333,.F.);
#420=ORIENTED_EDGE('',*,*,#332,.T.);
#421=ORIENTED_EDGE('',*,*,#334,.F.);
#422=ORIENTED_EDGE('',*,*,#335,.F.);
#423=ORIENTED_EDGE('',*,*,#336,.F.);
#424=ORIENTED_EDGE('',*,*,#335,.T.);
#425=ORIENTED_EDGE('',*,*,#337,.F.);
#426=ORIENTED_EDGE('',*,*,#338,.F.);
#427=ORIENTED_EDGE('',*,*,#339,.F.);
#428=ORIENTED_EDGE('',*,*,#338,.T.);
#429=ORIENTED_EDGE('',*,*,#340,.F.);
#430=ORIENTED_EDGE('',*,*,#341,.F.);
#431=ORIENTED_EDGE('',*,*,#342,.T.);
#432=ORIENTED_EDGE('',*,*,#341,.T.);
#433=ORIENTED_EDGE('',*,*,#343,.F.);
#434=ORIENTED_EDGE('',*,*,#344,.F.);
#435=ORIENTED_EDGE('',*,*,#345,.T.);
#436=ORIENTED_EDGE('',*,*,#344,.T.);
#437=ORIENTED_EDGE('',*,*,#346,.F.);
#438=ORIENTED_EDGE('',*,*,#347,.F.);
#439=ORIENTED_EDGE('',*,*,#348,.F.);
#440=ORIENTED_EDGE('',*,*,#347,.T.);
#441=ORIENTED_EDGE('',*,*,#349,.F.);
#442=ORIENTED_EDGE('',*,*,#350,.F.);
#443=ORIENTED_EDGE('',*,*,#351,.F.);
#444=ORIENTED_EDGE('',*,*,#350,.T.);
#445=ORIENTED_EDGE('',*,*,#352,.F.);
#446=ORIENTED_EDGE('',*,*,#353,.F.);
#447=ORIENTED_EDGE('',*,*,#354,.F.);
#448=ORIENTED_EDGE('',*,*,#353,.T.);
#449=ORIENTED_EDGE('',*,*,#355,.F.);
#450=ORIENTED_EDGE('',*,*,#356,.F.);
#451=ORIENTED_EDGE('',*,*,#357,.T.);
#452=ORIENTED_EDGE('',*,*,#356,.T.);
#453=ORIENTED_EDGE('',*,*,#358,.F.);
#454=ORIENTED_EDGE('',*,*,#324,.F.);
#455=ORIENTED_EDGE('',*,*,#358,.T.);
#456=ORIENTED_EDGE('',*,*,#355,.T.);
#457=ORIENTED_EDGE('',*,*,#352,.T.);
#458=ORIENTED_EDGE('',*,*,#349,.T.);
#459=ORIENTED_EDGE('',*,*,#346,.T.);
#460=ORIENTED_EDGE('',*,*,#343,.T.);
#461=ORIENTED_EDGE('',*,*,#340,.T.);
#462=ORIENTED_EDGE('',*,*,#337,.T.);
#463=ORIENTED_EDGE('',*,*,#334,.T.);
#464=ORIENTED_EDGE('',*,*,#331,.T.);
#465=ORIENTED_EDGE('',*,*,#328,.T.);
#466=ORIENTED_EDGE('',*,*,#325,.T.);
#467=ORIENTED_EDGE('',*,*,#320,.T.);
#468=ORIENTED_EDGE('',*,*,#317,.T.);
#469=ORIENTED_EDGE('',*,*,#314,.T.);
#470=ORIENTED_EDGE('',*,*,#311,.T.);
#471=ORIENTED_EDGE('',*,*,#308,.T.);
#472=ORIENTED_EDGE('',*,*,#305,.T.);
#473=ORIENTED_EDGE('',*,*,#302,.T.);
#474=ORIENTED_EDGE('',*,*,#299,.T.);
#475=ORIENTED_EDGE('',*,*,#298,.T.);
#476=ORIENTED_EDGE('',*,*,#295,.T.);
#477=ORIENTED_EDGE('',*,*,#292,.T.);
#478=ORIENTED_EDGE('',*,*,#289,.T.);
#479=ORIENTED_EDGE('',*,*,#357,.F.);
#480=ORIENTED_EDGE('',*,*,#323,.T.);
#481=ORIENTED_EDGE('',*,*,#327,.T.);
#482=ORIENTED_EDGE('',*,*,#330,.T.);
#483=ORIENTED_EDGE('',*,*,#333,.T.);
#484=ORIENTED_EDGE('',*,*,#336,.T.);
#485=ORIENTED_EDGE('',*,*,#339,.T.);
#486=ORIENTED_EDGE('',*,*,#342,.F.);
#487=ORIENTED_EDGE('',*,*,#345,.F.);
#488=ORIENTED_EDGE('',*,*,#348,.T.);
#489=ORIENTED_EDGE('',*,*,#351,.T.);
#490=ORIENTED_EDGE('',*,*,#354,.T.);
#491=ORIENTED_EDGE('',*,*,#322,.F.);
#492=ORIENTED_EDGE('',*,*,#319,.F.);
#493=ORIENTED_EDGE('',*,*,#316,.F.);
#494=ORIENTED_EDGE('',*,*,#313,.F.);
#495=ORIENTED_EDGE('',*,*,#310,.F.);
#496=ORIENTED_EDGE('',*,*,#307,.F.);
#497=ORIENTED_EDGE('',*,*,#304,.F.);
#498=ORIENTED_EDGE('',*,*,#301,.F.);
#499=ORIENTED_EDGE('',*,*,#297,.F.);
#500=ORIENTED_EDGE('',*,*,#287,.F.);
#501=ORIENTED_EDGE('',*,*,#291,.F.);
#502=ORIENTED_EDGE('',*,*,#294,.F.);
#503=PLANE('',#561);
#504=PLANE('',#562);
#505=PLANE('',#563);
#506=PLANE('',#564);
#507=PLANE('',#589);
#508=PLANE('',#590);
#509=PLANE('',#591);
#510=PLANE('',#592);
#511=PLANE('',#593);
#512=PLANE('',#594);
#513=PLANE('',#595);
#514=PLANE('',#596);
#515=PLANE('',#597);
#516=PLANE('',#598);
#517=PLANE('',#599);
#518=PLANE('',#600);
#519=PLANE('',#601);
#520=PLANE('',#602);
#521=ADVANCED_FACE('',(#57),#503,.T.);
#522=ADVANCED_FACE('',(#58),#504,.T.);
#523=ADVANCED_FACE('',(#59),#505,.T.);
#524=ADVANCED_FACE('',(#60),#506,.T.);
#525=ADVANCED_FACE('',(#61),#49,.F.);
#526=ADVANCED_FACE('',(#62),#50,.F.);
#527=ADVANCED_FACE('',(#63),#51,.F.);
#528=ADVANCED_FACE('',(#64),#52,.F.);
#529=ADVANCED_FACE('',(#65),#53,.F.);
#530=ADVANCED_FACE('',(#66),#54,.F.);
#531=ADVANCED_FACE('',(#67),#55,.F.);
#532=ADVANCED_FACE('',(#68),#56,.F.);
#533=ADVANCED_FACE('',(#69),#507,.T.);
#534=ADVANCED_FACE('',(#70),#508,.T.);
#535=ADVANCED_FACE('',(#71),#509,.T.);
#536=ADVANCED_FACE('',(#72),#510,.T.);
#537=ADVANCED_FACE('',(#73),#511,.T.);
#538=ADVANCED_FACE('',(#74),#512,.T.);
#539=ADVANCED_FACE('',(#75),#513,.T.);
#540=ADVANCED_FACE('',(#76),#514,.T.);
#541=ADVANCED_FACE('',(#77),#515,.T.);
#542=ADVANCED_FACE('',(#78),#516,.T.);
#543=ADVANCED_FACE('',(#79),#517,.T.);
#544=ADVANCED_FACE('',(#80),#518,.T.);
#545=ADVANCED_FACE('',(#81,#15,#16,#17,#18,#19,#20,#21,#22,#23),#519,.T.);
#546=ADVANCED_FACE('',(#82,#24,#25,#26,#27,#28,#29,#30,#31,#32),#520,.F.);
#547=CLOSED_SHELL('',(#521,#522,#523,#524,#525,#526,#527,#528,#529,#530,
#531,#532,#533,#534,#535,#536,#537,#538,#539,#540,#541,#542,#543,#544,#545,
#546));
#548=DERIVED_UNIT_ELEMENT(#550,1.);
#549=DERIVED_UNIT_ELEMENT(#897,-3.);
#550=(
MASS_UNIT()
NAMED_UNIT(*)
SI_UNIT(.KILO.,.GRAM.)
);
#551=DERIVED_UNIT((#548,#549));
#552=MEASURE_REPRESENTATION_ITEM('density measure',
POSITIVE_RATIO_MEASURE(7850.),#551);
#553=PROPERTY_DEFINITION_REPRESENTATION(#558,#555);
#554=PROPERTY_DEFINITION_REPRESENTATION(#559,#556);
#555=REPRESENTATION('material name',(#557),#894);
#556=REPRESENTATION('density',(#552),#894);
#557=DESCRIPTIVE_REPRESENTATION_ITEM('Steel','Steel');
#558=PROPERTY_DEFINITION('material property','material name',#904);
#559=PROPERTY_DEFINITION('material property','density of part',#904);
#560=AXIS2_PLACEMENT_3D('placement',#745,#603,#604);
#561=AXIS2_PLACEMENT_3D('',#746,#605,#606);
#562=AXIS2_PLACEMENT_3D('',#755,#611,#612);
#563=AXIS2_PLACEMENT_3D('',#761,#616,#617);
#564=AXIS2_PLACEMENT_3D('',#767,#621,#622);
#565=AXIS2_PLACEMENT_3D('',#770,#625,#626);
#566=AXIS2_PLACEMENT_3D('',#772,#627,#628);
#567=AXIS2_PLACEMENT_3D('',#775,#630,#631);
#568=AXIS2_PLACEMENT_3D('',#776,#632,#633);
#569=AXIS2_PLACEMENT_3D('',#778,#634,#635);
#570=AXIS2_PLACEMENT_3D('',#781,#637,#638);
#571=AXIS2_PLACEMENT_3D('',#782,#639,#640);
#572=AXIS2_PLACEMENT_3D('',#784,#641,#642);
#573=AXIS2_PLACEMENT_3D('',#787,#644,#645);
#574=AXIS2_PLACEMENT_3D('',#788,#646,#647);
#575=AXIS2_PLACEMENT_3D('',#790,#648,#649);
#576=AXIS2_PLACEMENT_3D('',#793,#651,#652);
#577=AXIS2_PLACEMENT_3D('',#794,#653,#654);
#578=AXIS2_PLACEMENT_3D('',#796,#655,#656);
#579=AXIS2_PLACEMENT_3D('',#799,#658,#659);
#580=AXIS2_PLACEMENT_3D('',#800,#660,#661);
#581=AXIS2_PLACEMENT_3D('',#802,#662,#663);
#582=AXIS2_PLACEMENT_3D('',#805,#665,#666);
#583=AXIS2_PLACEMENT_3D('',#806,#667,#668);
#584=AXIS2_PLACEMENT_3D('',#808,#669,#670);
#585=AXIS2_PLACEMENT_3D('',#811,#672,#673);
#586=AXIS2_PLACEMENT_3D('',#812,#674,#675);
#587=AXIS2_PLACEMENT_3D('',#814,#676,#677);
#588=AXIS2_PLACEMENT_3D('',#817,#679,#680);
#589=AXIS2_PLACEMENT_3D('',#818,#681,#682);
#590=AXIS2_PLACEMENT_3D('',#827,#687,#688);
#591=AXIS2_PLACEMENT_3D('',#833,#692,#693);
#592=AXIS2_PLACEMENT_3D('',#839,#697,#698);
#593=AXIS2_PLACEMENT_3D('',#845,#702,#703);
#594=AXIS2_PLACEMENT_3D('',#851,#707,#708);
#595=AXIS2_PLACEMENT_3D('',#857,#712,#713);
#596=AXIS2_PLACEMENT_3D('',#863,#717,#718);
#597=AXIS2_PLACEMENT_3D('',#869,#722,#723);
#598=AXIS2_PLACEMENT_3D('',#875,#727,#728);
#599=AXIS2_PLACEMENT_3D('',#881,#732,#733);
#600=AXIS2_PLACEMENT_3D('',#887,#737,#738);
#601=AXIS2_PLACEMENT_3D('',#890,#741,#742);
#602=AXIS2_PLACEMENT_3D('',#891,#743,#744);
#603=DIRECTION('axis',(0.,0.,1.));
#604=DIRECTION('refdir',(1.,0.,0.));
#605=DIRECTION('center_axis',(3.24943324280534E-16,1.,0.));
#606=DIRECTION('ref_axis',(-1.,3.24943324280534E-16,0.));
#607=DIRECTION('',(-1.,3.24943324280534E-16,0.));
#608=DIRECTION('',(0.,0.,1.));
#609=DIRECTION('',(-1.,3.24943324280534E-16,0.));
#610=DIRECTION('',(0.,0.,1.));
#611=DIRECTION('center_axis',(-1.,7.68985644762013E-16,0.));
#612=DIRECTION('ref_axis',(-7.68985644762013E-16,-1.,0.));
#613=DIRECTION('',(-7.68985644762013E-16,-1.,0.));
#614=DIRECTION('',(-7.68985644762013E-16,-1.,0.));
#615=DIRECTION('',(0.,0.,1.));
#616=DIRECTION('center_axis',(-2.64016450977934E-16,-1.,0.));
#617=DIRECTION('ref_axis',(1.,-2.64016450977934E-16,0.));
#618=DIRECTION('',(1.,-2.64016450977934E-16,0.));
#619=DIRECTION('',(1.,-2.64016450977934E-16,0.));
#620=DIRECTION('',(0.,0.,1.));
#621=DIRECTION('center_axis',(1.,0.,0.));
#622=DIRECTION('ref_axis',(0.,1.,0.));
#623=DIRECTION('',(0.,1.,0.));
#624=DIRECTION('',(0.,1.,0.));
#625=DIRECTION('center_axis',(0.,0.,1.));
#626=DIRECTION('ref_axis',(1.,0.,0.));
#627=DIRECTION('center_axis',(0.,0.,-1.));
#628=DIRECTION('ref_axis',(1.,0.,0.));
#629=DIRECTION('',(0.,0.,-1.));
#630=DIRECTION('center_axis',(0.,0.,-1.));
#631=DIRECTION('ref_axis',(1.,0.,0.));
#632=DIRECTION('center_axis',(0.,0.,1.));
#633=DIRECTION('ref_axis',(1.,0.,0.));
#634=DIRECTION('center_axis',(0.,0.,-1.));
#635=DIRECTION('ref_axis',(1.,0.,0.));
#636=DIRECTION('',(0.,0.,-1.));
#637=DIRECTION('center_axis',(0.,0.,-1.));
#638=DIRECTION('ref_axis',(1.,0.,0.));
#639=DIRECTION('center_axis',(0.,0.,1.));
#640=DIRECTION('ref_axis',(1.,0.,0.));
#641=DIRECTION('center_axis',(0.,0.,-1.));
#642=DIRECTION('ref_axis',(1.,0.,0.));
#643=DIRECTION('',(0.,0.,-1.));
#644=DIRECTION('center_axis',(0.,0.,-1.));
#645=DIRECTION('ref_axis',(1.,0.,0.));
#646=DIRECTION('center_axis',(0.,0.,1.));
#647=DIRECTION('ref_axis',(1.,0.,0.));
#648=DIRECTION('center_axis',(0.,0.,-1.));
#649=DIRECTION('ref_axis',(1.,0.,0.));
#650=DIRECTION('',(0.,0.,-1.));
#651=DIRECTION('center_axis',(0.,0.,-1.));
#652=DIRECTION('ref_axis',(1.,0.,0.));
#653=DIRECTION('center_axis',(0.,0.,1.));
#654=DIRECTION('ref_axis',(1.,0.,0.));
#655=DIRECTION('center_axis',(0.,0.,-1.));
#656=DIRECTION('ref_axis',(1.,0.,0.));
#657=DIRECTION('',(0.,0.,-1.));
#658=DIRECTION('center_axis',(0.,0.,-1.));
#659=DIRECTION('ref_axis',(1.,0.,0.));
#660=DIRECTION('center_axis',(0.,0.,1.));
#661=DIRECTION('ref_axis',(1.,0.,0.));
#662=DIRECTION('center_axis',(0.,0.,-1.));
#663=DIRECTION('ref_axis',(1.,0.,0.));
#664=DIRECTION('',(0.,0.,-1.));
#665=DIRECTION('center_axis',(0.,0.,-1.));
#666=DIRECTION('ref_axis',(1.,0.,0.));
#667=DIRECTION('center_axis',(0.,0.,1.));
#668=DIRECTION('ref_axis',(1.,0.,0.));
#669=DIRECTION('center_axis',(0.,0.,-1.));
#670=DIRECTION('ref_axis',(1.,0.,0.));
#671=DIRECTION('',(0.,0.,-1.));
#672=DIRECTION('center_axis',(0.,0.,-1.));
#673=DIRECTION('ref_axis',(1.,0.,0.));
#674=DIRECTION('center_axis',(0.,0.,1.));
#675=DIRECTION('ref_axis',(1.,0.,0.));
#676=DIRECTION('center_axis',(0.,0.,-1.));
#677=DIRECTION('ref_axis',(1.,0.,0.));
#678=DIRECTION('',(0.,0.,-1.));
#679=DIRECTION('center_axis',(0.,0.,-1.));
#680=DIRECTION('ref_axis',(1.,0.,0.));
#681=DIRECTION('center_axis',(1.,-3.84492822381007E-16,0.));
#682=DIRECTION('ref_axis',(3.84492822381007E-16,1.,0.));
#683=DIRECTION('',(-3.84492822381007E-16,-1.,0.));
#684=DIRECTION('',(0.,0.,1.));
#685=DIRECTION('',(3.84492822381007E-16,1.,0.));
#686=DIRECTION('',(0.,0.,1.));
#687=DIRECTION('center_axis',(-1.77635683940025E-15,1.,0.));
#688=DIRECTION('ref_axis',(-1.,-1.77635683940025E-15,0.));
#689=DIRECTION('',(1.,1.77635683940025E-15,0.));
#690=DIRECTION('',(-1.,-1.77635683940025E-15,0.));
#691=DIRECTION('',(0.,0.,1.));
#692=DIRECTION('center_axis',(1.,-3.58859967555605E-15,0.));
#693=DIRECTION('ref_axis',(3.58859967555605E-15,1.,0.));
#694=DIRECTION('',(-3.58859967555605E-15,-1.,0.));
#695=DIRECTION('',(3.58859967555605E-15,1.,0.));
#696=DIRECTION('',(0.,0.,1.));
#697=DIRECTION('center_axis',(0.,-1.,0.));
#698=DIRECTION('ref_axis',(1.,0.,0.));
#699=DIRECTION('',(-1.,0.,0.));
#700=DIRECTION('',(1.,0.,0.));
#701=DIRECTION('',(0.,0.,1.));
#702=DIRECTION('center_axis',(-1.,0.,0.));
#703=DIRECTION('ref_axis',(0.,-1.,0.));
#704=DIRECTION('',(0.,1.,0.));
#705=DIRECTION('',(0.,-1.,0.));
#706=DIRECTION('',(0.,0.,1.));
#707=DIRECTION('center_axis',(-3.5527136788005E-16,1.,0.));
#708=DIRECTION('ref_axis',(-1.,-3.5527136788005E-16,0.));
#709=DIRECTION('',(1.,3.5527136788005E-16,0.));
#710=DIRECTION('',(-1.,-3.5527136788005E-16,0.));
#711=DIRECTION('',(0.,0.,1.));
#712=DIRECTION('center_axis',(-1.,0.,0.));
#713=DIRECTION('ref_axis',(0.,-1.,0.));
#714=DIRECTION('',(0.,-1.,0.));
#715=DIRECTION('',(0.,-1.,0.));
#716=DIRECTION('',(0.,0.,1.));
#717=DIRECTION('center_axis',(-2.66453525910038E-16,-1.,0.));
#718=DIRECTION('ref_axis',(1.,-2.66453525910038E-16,0.));
#719=DIRECTION('',(1.,-2.66453525910038E-16,0.));
#720=DIRECTION('',(1.,-2.66453525910038E-16,0.));
#721=DIRECTION('',(0.,0.,1.));
#722=DIRECTION('center_axis',(-1.,0.,0.));
#723=DIRECTION('ref_axis',(0.,-1.,0.));
#724=DIRECTION('',(0.,1.,0.));
#725=DIRECTION('',(0.,-1.,0.));
#726=DIRECTION('',(0.,0.,1.));
#727=DIRECTION('center_axis',(-2.16244765685584E-33,1.,0.));
#728=DIRECTION('ref_axis',(-1.,-2.16244765685584E-33,0.));
#729=DIRECTION('',(1.,2.16244765685584E-33,0.));
#730=DIRECTION('',(-1.,-2.16244765685584E-33,0.));
#731=DIRECTION('',(0.,0.,1.));
#732=DIRECTION('center_axis',(1.,0.,0.));
#733=DIRECTION('ref_axis',(0.,1.,0.));
#734=DIRECTION('',(0.,-1.,0.));
#735=DIRECTION('',(0.,1.,0.));
#736=DIRECTION('',(0.,0.,1.));
#737=DIRECTION('center_axis',(-1.77635683940025E-16,-1.,0.));
#738=DIRECTION('ref_axis',(1.,-1.77635683940025E-16,0.));
#739=DIRECTION('',(1.,-1.77635683940025E-16,0.));
#740=DIRECTION('',(1.,-1.77635683940025E-16,0.));
#741=DIRECTION('center_axis',(0.,0.,1.));
#742=DIRECTION('ref_axis',(1.,0.,0.));
#743=DIRECTION('center_axis',(0.,0.,1.));
#744=DIRECTION('ref_axis',(1.,0.,0.));
#745=CARTESIAN_POINT('',(0.,0.,0.));
#746=CARTESIAN_POINT('Origin',(42.1666666666667,-28.05,0.));
#747=CARTESIAN_POINT('',(42.1666666666667,-28.05,0.));
#748=CARTESIAN_POINT('',(14.8333333333333,-28.05,0.));
#749=CARTESIAN_POINT('',(14.8333333333333,-28.05,0.));
#750=CARTESIAN_POINT('',(14.8333333333333,-28.05,6.));
#751=CARTESIAN_POINT('',(14.8333333333333,-28.05,0.));
#752=CARTESIAN_POINT('',(42.1666666666667,-28.05,6.));
#753=CARTESIAN_POINT('',(14.8333333333333,-28.05,6.));
#754=CARTESIAN_POINT('',(42.1666666666667,-28.05,0.));
#755=CARTESIAN_POINT('Origin',(42.1666666666667,-4.95000000000001,0.));
#756=CARTESIAN_POINT('',(42.1666666666667,-4.95000000000001,0.));
#757=CARTESIAN_POINT('',(42.1666666666667,-28.05,0.));
#758=CARTESIAN_POINT('',(42.1666666666667,-4.95000000000001,6.));
#759=CARTESIAN_POINT('',(42.1666666666667,-28.05,6.));
#760=CARTESIAN_POINT('',(42.1666666666667,-4.95000000000001,0.));
#761=CARTESIAN_POINT('Origin',(14.8333333333333,-4.95,0.));
#762=CARTESIAN_POINT('',(14.8333333333333,-4.95,0.));
#763=CARTESIAN_POINT('',(14.8333333333333,-4.95,0.));
#764=CARTESIAN_POINT('',(14.8333333333333,-4.95,6.));
#765=CARTESIAN_POINT('',(14.8333333333333,-4.95,6.));
#766=CARTESIAN_POINT('',(14.8333333333333,-4.95,0.));
#767=CARTESIAN_POINT('Origin',(14.8333333333333,-28.05,0.));
#768=CARTESIAN_POINT('',(14.8333333333333,-28.05,0.));
#769=CARTESIAN_POINT('',(14.8333333333333,-28.05,6.));
#770=CARTESIAN_POINT('Origin',(6.25,-2.6,0.));
#771=CARTESIAN_POINT('',(5.2,-2.6,6.));
#772=CARTESIAN_POINT('Origin',(6.25,-2.6,6.));
#773=CARTESIAN_POINT('',(5.2,-2.6,0.));
#774=CARTESIAN_POINT('',(5.2,-2.6,0.));
#775=CARTESIAN_POINT('Origin',(6.25,-2.6,0.));
#776=CARTESIAN_POINT('Origin',(35.9166666666667,-2.6,0.));
#777=CARTESIAN_POINT('',(34.8666666666667,-2.6,6.));
#778=CARTESIAN_POINT('Origin',(35.9166666666667,-2.6,6.));
#779=CARTESIAN_POINT('',(34.8666666666667,-2.6,0.));
#780=CARTESIAN_POINT('',(34.8666666666667,-2.6,0.));
#781=CARTESIAN_POINT('Origin',(35.9166666666667,-2.6,0.));
#782=CARTESIAN_POINT('Origin',(6.25,-30.4,0.));
#783=CARTESIAN_POINT('',(5.2,-30.4,6.));
#784=CARTESIAN_POINT('Origin',(6.25,-30.4,6.));
#785=CARTESIAN_POINT('',(5.2,-30.4,0.));
#786=CARTESIAN_POINT('',(5.2,-30.4,0.));
#787=CARTESIAN_POINT('Origin',(6.25,-30.4,0.));
#788=CARTESIAN_POINT('Origin',(21.0833333333333,-2.6,0.));
#789=CARTESIAN_POINT('',(20.0333333333333,-2.6,6.));
#790=CARTESIAN_POINT('Origin',(21.0833333333333,-2.6,6.));
#791=CARTESIAN_POINT('',(20.0333333333333,-2.6,0.));
#792=CARTESIAN_POINT('',(20.0333333333333,-2.6,0.));
#793=CARTESIAN_POINT('Origin',(21.0833333333333,-2.6,0.));
#794=CARTESIAN_POINT('Origin',(50.75,-2.6,0.));
#795=CARTESIAN_POINT('',(49.7,-2.6,6.));
#796=CARTESIAN_POINT('Origin',(50.75,-2.6,6.));
#797=CARTESIAN_POINT('',(49.7,-2.6,0.));
#798=CARTESIAN_POINT('',(49.7,-2.6,0.));
#799=CARTESIAN_POINT('Origin',(50.75,-2.6,0.));
#800=CARTESIAN_POINT('Origin',(50.75,-30.4,0.));
#801=CARTESIAN_POINT('',(49.7,-30.4,6.));
#802=CARTESIAN_POINT('Origin',(50.75,-30.4,6.));
#803=CARTESIAN_POINT('',(49.7,-30.4,0.));
#804=CARTESIAN_POINT('',(49.7,-30.4,0.));
#805=CARTESIAN_POINT('Origin',(50.75,-30.4,0.));
#806=CARTESIAN_POINT('Origin',(21.0833333333333,-30.4,0.));
#807=CARTESIAN_POINT('',(20.0333333333333,-30.4,6.));
#808=CARTESIAN_POINT('Origin',(21.0833333333333,-30.4,6.));
#809=CARTESIAN_POINT('',(20.0333333333333,-30.4,0.));
#810=CARTESIAN_POINT('',(20.0333333333333,-30.4,0.));
#811=CARTESIAN_POINT('Origin',(21.0833333333333,-30.4,0.));
#812=CARTESIAN_POINT('Origin',(35.9166666666667,-30.4,0.));
#813=CARTESIAN_POINT('',(34.8666666666667,-30.4,6.));
#814=CARTESIAN_POINT('Origin',(35.9166666666667,-30.4,6.));
#815=CARTESIAN_POINT('',(34.8666666666667,-30.4,0.));
#816=CARTESIAN_POINT('',(34.8666666666667,-30.4,0.));
#817=CARTESIAN_POINT('Origin',(35.9166666666667,-30.4,0.));
#818=CARTESIAN_POINT('Origin',(44.5,-28.05,0.));
#819=CARTESIAN_POINT('',(44.5,-4.95000000000001,0.));
#820=CARTESIAN_POINT('',(44.5,-28.05,0.));
#821=CARTESIAN_POINT('',(44.5,-4.95000000000001,0.));
#822=CARTESIAN_POINT('',(44.5,-4.95000000000001,6.));
#823=CARTESIAN_POINT('',(44.5,-4.95000000000001,0.));
#824=CARTESIAN_POINT('',(44.5,-28.05,6.));
#825=CARTESIAN_POINT('',(44.5,-4.95000000000001,6.));
#826=CARTESIAN_POINT('',(44.5,-28.05,0.));
#827=CARTESIAN_POINT('Origin',(57.,-28.05,0.));
#828=CARTESIAN_POINT('',(57.,-28.05,0.));
#829=CARTESIAN_POINT('',(44.5,-28.05,0.));
#830=CARTESIAN_POINT('',(57.,-28.05,6.));
#831=CARTESIAN_POINT('',(44.5,-28.05,6.));
#832=CARTESIAN_POINT('',(57.,-28.05,0.));
#833=CARTESIAN_POINT('Origin',(57.,-33.,0.));
#834=CARTESIAN_POINT('',(57.,-33.,0.));
#835=CARTESIAN_POINT('',(57.,-28.05,0.));
#836=CARTESIAN_POINT('',(57.,-33.,6.));
#837=CARTESIAN_POINT('',(57.,-28.05,6.));
#838=CARTESIAN_POINT('',(57.,-33.,0.));
#839=CARTESIAN_POINT('Origin',(0.,-33.,0.));
#840=CARTESIAN_POINT('',(0.,-33.,0.));
#841=CARTESIAN_POINT('',(57.,-33.,0.));
#842=CARTESIAN_POINT('',(0.,-33.,6.));
#843=CARTESIAN_POINT('',(57.,-33.,6.));
#844=CARTESIAN_POINT('',(0.,-33.,0.));
#845=CARTESIAN_POINT('Origin',(0.,-28.05,0.));
#846=CARTESIAN_POINT('',(0.,-28.05,0.));
#847=CARTESIAN_POINT('',(0.,-33.,0.));
#848=CARTESIAN_POINT('',(0.,-28.05,6.));
#849=CARTESIAN_POINT('',(0.,-33.,6.));
#850=CARTESIAN_POINT('',(0.,-28.05,0.));
#851=CARTESIAN_POINT('Origin',(12.5,-28.05,0.));
#852=CARTESIAN_POINT('',(12.5,-28.05,0.));
#853=CARTESIAN_POINT('',(0.,-28.05,0.));
#854=CARTESIAN_POINT('',(12.5,-28.05,6.));
#855=CARTESIAN_POINT('',(0.,-28.05,6.));
#856=CARTESIAN_POINT('',(12.5,-28.05,0.));
#857=CARTESIAN_POINT('Origin',(12.5,-4.95,0.));
#858=CARTESIAN_POINT('',(12.5,-4.95,0.));
#859=CARTESIAN_POINT('',(12.5,-4.95,0.));
#860=CARTESIAN_POINT('',(12.5,-4.95,6.));
#861=CARTESIAN_POINT('',(12.5,-4.95,6.));
#862=CARTESIAN_POINT('',(12.5,-4.95,0.));
#863=CARTESIAN_POINT('Origin',(0.,-4.95,0.));
#864=CARTESIAN_POINT('',(0.,-4.95,0.));
#865=CARTESIAN_POINT('',(0.,-4.95,0.));
#866=CARTESIAN_POINT('',(0.,-4.95,6.));
#867=CARTESIAN_POINT('',(0.,-4.95,6.));
#868=CARTESIAN_POINT('',(0.,-4.95,0.));
#869=CARTESIAN_POINT('Origin',(0.,0.,0.));
#870=CARTESIAN_POINT('',(0.,0.,0.));
#871=CARTESIAN_POINT('',(0.,-4.95,0.));
#872=CARTESIAN_POINT('',(0.,0.,6.));
#873=CARTESIAN_POINT('',(0.,-4.95,6.));
#874=CARTESIAN_POINT('',(0.,0.,0.));
#875=CARTESIAN_POINT('Origin',(57.,1.23259516440783E-31,0.));
#876=CARTESIAN_POINT('',(57.,1.23259516440783E-31,0.));
#877=CARTESIAN_POINT('',(0.,0.,0.));
#878=CARTESIAN_POINT('',(57.,0.,6.));
#879=CARTESIAN_POINT('',(0.,0.,6.));
#880=CARTESIAN_POINT('',(57.,1.23259516440783E-31,0.));
#881=CARTESIAN_POINT('Origin',(57.,-4.95000000000001,0.));
#882=CARTESIAN_POINT('',(57.,-4.95000000000001,0.));
#883=CARTESIAN_POINT('',(57.,1.23259516440783E-31,0.));
#884=CARTESIAN_POINT('',(57.,-4.95000000000001,6.));
#885=CARTESIAN_POINT('',(57.,1.23259516440783E-31,6.));
#886=CARTESIAN_POINT('',(57.,-4.95000000000001,0.));
#887=CARTESIAN_POINT('Origin',(44.5,-4.95000000000001,0.));
#888=CARTESIAN_POINT('',(44.5,-4.95000000000001,0.));
#889=CARTESIAN_POINT('',(44.5,-4.95000000000001,6.));
#890=CARTESIAN_POINT('Origin',(28.5,-16.5,6.));
#891=CARTESIAN_POINT('Origin',(28.5,-16.5,0.));
#892=UNCERTAINTY_MEASURE_WITH_UNIT(LENGTH_MEASURE(0.01),#896,
'DISTANCE_ACCURACY_VALUE',
'Maximum model space distance between geometric entities at asserted c
onnectivities');
#893=UNCERTAINTY_MEASURE_WITH_UNIT(LENGTH_MEASURE(0.01),#896,
'DISTANCE_ACCURACY_VALUE',
'Maximum model space distance between geometric entities at asserted c
onnectivities');
#894=(
GEOMETRIC_REPRESENTATION_CONTEXT(3)
GLOBAL_UNCERTAINTY_ASSIGNED_CONTEXT((#892))
GLOBAL_UNIT_ASSIGNED_CONTEXT((#896,#898,#899))
REPRESENTATION_CONTEXT('','3D')
);
#895=(
GEOMETRIC_REPRESENTATION_CONTEXT(3)
GLOBAL_UNCERTAINTY_ASSIGNED_CONTEXT((#893))
GLOBAL_UNIT_ASSIGNED_CONTEXT((#896,#898,#899))
REPRESENTATION_CONTEXT('','3D')
);
#896=(
LENGTH_UNIT()
NAMED_UNIT(*)
SI_UNIT(.MILLI.,.METRE.)
);
#897=(
LENGTH_UNIT()
NAMED_UNIT(*)
SI_UNIT($,.METRE.)
);
#898=(
NAMED_UNIT(*)
PLANE_ANGLE_UNIT()
SI_UNIT($,.RADIAN.)
);
#899=(
NAMED_UNIT(*)
SI_UNIT($,.STERADIAN.)
SOLID_ANGLE_UNIT()
);
#900=SHAPE_DEFINITION_REPRESENTATION(#901,#902);
#901=PRODUCT_DEFINITION_SHAPE('',$,#904);
#902=SHAPE_REPRESENTATION('',(#560),#894);
#903=PRODUCT_DEFINITION_CONTEXT('part definition',#908,'design');
#904=PRODUCT_DEFINITION('Dock - Bluesbreaker','Dock - Bluesbreaker v17',
#905,#903);
#905=PRODUCT_DEFINITION_FORMATION('',$,#910);
#906=PRODUCT_RELATED_PRODUCT_CATEGORY('Dock - Bluesbreaker v17',
'Dock - Bluesbreaker v17',(#910));
#907=APPLICATION_PROTOCOL_DEFINITION('international standard',
'automotive_design',2009,#908);
#908=APPLICATION_CONTEXT(
'Core Data for Automotive Mechanical Design Process');
#909=PRODUCT_CONTEXT('part definition',#908,'mechanical');
#910=PRODUCT('Dock - Bluesbreaker','Dock - Bluesbreaker v17',$,(#909));
#911=PRESENTATION_STYLE_ASSIGNMENT((#912));
#912=SURFACE_STYLE_USAGE(.BOTH.,#913);
#913=SURFACE_SIDE_STYLE('',(#914));
#914=SURFACE_STYLE_FILL_AREA(#915);
#915=FILL_AREA_STYLE('Steel - Satin',(#916));
#916=FILL_AREA_STYLE_COLOUR('Steel - Satin',#917);
#917=COLOUR_RGB('Steel - Satin',0.627450980392157,0.627450980392157,0.627450980392157);
ENDSEC;
END-ISO-10303-21;
